…
5. Найти самого высокого персонажа.
```R
starwars %>% filter(height == max(height, na.rm = TRUE))

# A tibble: 1 × 14
  name       height  mass hair_color skin_color eye_color birth_year sex   gender homeworld species
  <chr>       <int> <dbl> <chr>      <chr>      <chr>          <dbl> <chr> <chr>  <chr>     <chr>  
1 Yarael Po…    264    NA none       white      yellow            NA male  mascu… Quermia   Quermi…
# ℹ 3 more variables: films <list>, vehicles <list>, starships <list>
```
6. Найти всех персонажей ниже 170
```R
print(filter(starwars, height < 170))

# A tibble: 23 × 14
   name      height  mass hair_color skin_color eye_color birth_year sex   gender homeworld species
   <chr>      <int> <dbl> <chr>      <chr>      <chr>          <dbl> <chr> <chr>  <chr>     <chr>  
 1 C-3PO        167    75 NA         gold       yellow           112 none  mascu… Tatooine  Droid  
 2 R2-D2         96    32 NA         white, bl… red               33 none  mascu… Naboo     Droid  
 3 Leia Org…    150    49 brown      light      brown             19 fema… femin… Alderaan  Human  
 4 Beru Whi…    165    75 brown      light      blue              47 fema… femin… Tatooine  Human  
 5 R5-D4         97    32 NA         white, red red               NA none  mascu… Tatooine  Droid  
 6 Yoda          66    17 white      green      brown            896 male  mascu… NA        Yoda's…
 7 Mon Moth…    150    NA auburn     fair       blue              48 fema… femin… Chandrila Human  
 8 Wicket S…     88    20 brown      brown      brown              8 male  mascu… Endor     Ewok   
 9 Nien Nunb    160    68 none       grey       black             NA male  mascu… Sullust   Sullus…
10 Watto        137    NA black      blue, grey yellow            NA male  mascu… Toydaria  Toydar…
# ℹ 13 more rows
# ℹ 3 more variables: films <list>, vehicles <list>, starships <list>
# ℹ Use `print(n = ...)` to see more rows
```

7. Подсчитать ИМТ (индекс массы тела) для всех персонажей. ИМТ подсчитать по формуле 𝐼 = 𝑚/ℎ2 , где 𝑚-- масса (weight), а ℎ -- рост (height).
```R
starwars %>% mutate("IMT" = mass/(height**2)) %>% select(name, IMT)

# A tibble: 87 × 2
   name                   IMT
   <chr>                <dbl>
 1 Luke Skywalker     0.00260
 2 C-3PO              0.00269
 3 R2-D2              0.00347
 4 Darth Vader        0.00333
 5 Leia Organa        0.00218
 6 Owen Lars          0.00379
 7 Beru Whitesun lars 0.00275
 8 R5-D4              0.00340
 9 Biggs Darklighter  0.00251
10 Obi-Wan Kenobi     0.00232
# ℹ 77 more rows
# ℹ Use `print(n = ...)` to see more rows
```
…
```R
starwars %>% count(eye_color) %>% filter(n == max(n))

A tibble: 1 × 2
  eye_color     n
  <chr>     <int>
1 brown        21
```

11. Подсчитать среднюю длину имени в каждой расе вселенной Звездных войн.

```R
starwars %>% group_by(species) %>% summarise(avg_lenth = mean(nchar(name)))

# A tibble: 38 × 2
   species   avg_lenth
   <chr>         <dbl>
 1 Aleena        13   
 2 Besalisk      15   
 3 Cerean        12   
 4 Chagrian      10   
 5 Clawdite      10   
 6 Droid          4.83
 7 Dug            7   
 8 Ewok          21   
 9 Geonosian     17   
10 Gungan        11.7 
# ℹ 28 more rows
# ℹ Use `print(n = ...)` to see more rows
```
…
